module github.com/kellydanma/memohub

go 1.14

require (
	github.com/gorilla/mux v1.7.4
	github.com/gorilla/schema v1.1.0
	github.com/jinzhu/gorm v1.9.12
	github.com/lib/pq v1.3.0 // indirect
	github.com/stretchr/testify v1.5.1
	golang.org/x/crypto v0.0.0-20200323165209-0ec3e9974c59
)
